%YAML 1.1
%TAG !u! tag:unity3d.com,2011:
--- !u!221 &22100000
AnimatorOverrideController:
  m_ObjectHideFlags: 0
  m_CorrespondingSourceObject: {fileID: 0}
  m_PrefabInstance: {fileID: 0}
  m_PrefabAsset: {fileID: 0}
  m_Name: Bob
  m_Controller: {fileID: 9100000, guid: 014a2019f23fe7b4bb195e07f4620a2c, type: 2}
  m_Clips:
  - m_OriginalClip: {fileID: 7400000, guid: a90b41ff8e1103c4881937992bb0f2bd, type: 2}
    m_OverrideClip: {fileID: 7400000, guid: 4a3c0ec7b9ed89e45a2a53bfe5661747, type: 2}
  - m_OriginalClip: {fileID: 7400000, guid: c1b46486562695c4e92f1a11b4e6fce6, type: 2}
    m_OverrideClip: {fileID: 7400000, guid: 043ecbc0aef5a954c8146ecd8313505f, type: 2}
